<?xml version="1.0" encoding="iso-8859-1"?>
<!-- Generator: Adobe Illustrator 19.0.0, SVG Export Plug-In . SVG Version: 6.00 Build 0)  -->
<svg version="1.1" id="Layer_1" xmlns="http://www.w3.org/2000/svg" xmlns:xlink="http://www.w3.org/1999/xlink" x="0px" y="0px"
	 viewBox="0 0 512 512" style="enable-background:new 0 0 512 512;" xml:space="preserve">
<path style="fill:#D9A460;" d="M256,7.935c-87.839,0-170,24.273-240.176,66.449L256,474.866L496.176,74.385
	C426,32.208,343.839,7.935,256,7.935z"/>
<path style="fill:#F2D383;" d="M256,75.441c-75.139,0-145.422,20.764-205.453,56.843l132.44,220.837
	c-0.004,0.181-0.026,0.357-0.026,0.539v132.233c0,10.037,8.135,18.171,18.172,18.171c10.036,0,18.171-8.135,18.171-18.171v-72.219
	l36.698,61.192l83.095-138.556v55.495c0,10.035,8.135,18.17,18.171,18.17c10.037,0,18.171-8.135,18.171-18.17V275.711l16.655-27.772
	v51.662c0,10.034,8.135,18.17,18.171,18.17c10.037,0,18.171-8.135,18.171-18.17V187.34l33.017-55.056
	C401.422,96.205,331.139,75.441,256,75.441z"/>
<path style="fill:#B3874F;" d="M256,75.441c-75.139,0-145.422,20.764-205.453,56.843l10.039,16.738
	C117.683,114.706,184.532,94.957,256,94.957s138.317,19.749,195.415,54.065l10.038-16.738C401.422,96.205,331.139,75.441,256,75.441
	z"/>
<g>
	<path style="fill:#E94F3D;" d="M314.75,268.759c-37.333,0-67.599,30.265-67.599,67.6c0,32.109,22.397,58.969,52.414,65.863
		l66.13-110.269C353.304,277.747,335.084,268.759,314.75,268.759z"/>
	<path style="fill:#E94F3D;" d="M156.821,173.804c-25.924,0-48.43,14.601-59.771,36.024l59.472,99.165
		c0.101,0.002,0.199,0.008,0.299,0.008c37.334,0,67.601-30.262,67.601-67.596C224.422,204.069,194.155,173.804,156.821,173.804z"/>
	<path style="fill:#E94F3D;" d="M387.222,177.054c0-37.335-30.266-67.603-67.601-67.603c-37.333,0-67.599,30.267-67.599,67.603
		c0,37.332,30.266,67.596,67.599,67.596C356.955,244.649,387.222,214.386,387.222,177.054z"/>
	<path style="fill:#E94F3D;" d="M216.646,77.37c-45.966,4.498-89.64,16.789-129.696,35.534
		c9.808,25.231,34.313,43.124,63.012,43.124c37.334,0,67.601-30.264,67.601-67.595C217.561,84.664,217.239,80.971,216.646,77.37z"/>
</g>
<path style="fill:#C24232;" d="M216.646,77.37c-45.966,4.498-89.642,16.789-129.697,35.534c2.401,6.165,5.673,11.895,9.675,17.03
	c37.259-17.248,77.778-28.648,120.386-32.994c0.35-2.789,0.551-5.624,0.551-8.508C217.561,84.664,217.239,80.971,216.646,77.37z"/>
<g>
	<circle style="fill:#B3874F;" cx="50.622" cy="76.2" r="6.494"/>
	<circle style="fill:#B3874F;" cx="103.54" cy="89.193" r="6.494"/>
	<circle style="fill:#B3874F;" cx="160.738" cy="44.952" r="6.494"/>
	<circle style="fill:#B3874F;" cx="234.896" cy="57.941" r="6.494"/>
	<circle style="fill:#B3874F;" cx="312.917" cy="31.963" r="6.494"/>
	<circle style="fill:#B3874F;" cx="350.773" cy="69.709" r="6.494"/>
	<circle style="fill:#B3874F;" cx="467.952" cy="81.935" r="6.494"/>
	<circle style="fill:#B3874F;" cx="413.484" cy="68.942" r="6.494"/>
</g>
<path d="M319.621,252.585c41.651,0,75.536-33.883,75.536-75.532c0-41.651-33.885-75.537-75.536-75.537
	c-41.65,0-75.535,33.886-75.535,75.537C244.087,218.702,277.971,252.585,319.621,252.585z M319.621,117.387
	c32.9,0,59.665,26.766,59.665,59.666c0,32.897-26.765,59.661-59.665,59.661c-32.899,0-59.664-26.763-59.664-59.661
	C259.957,144.153,286.723,117.387,319.621,117.387z M500.264,67.584C426.7,23.37,342.235,0,256,0
	C169.766,0,85.302,23.37,11.736,67.584c-3.754,2.256-4.97,7.127-2.717,10.883l166.005,276.805v130.621
	c0,14.396,11.711,26.107,26.107,26.107c14.395,0,26.106-11.711,26.106-26.107v-43.558l21.958,36.613
	c1.434,2.391,4.017,3.854,6.805,3.854c2.788,0,5.372-1.463,6.805-3.854l68.354-113.977v26.835c0,14.394,11.711,26.105,26.107,26.105
	c14.395,0,26.106-11.71,26.106-26.105V277.908l0.784-1.308v23.001c0,14.394,11.711,26.105,26.106,26.105
	c14.396,0,26.107-11.71,26.107-26.105V189.537l66.61-111.07C505.234,74.711,504.018,69.839,500.264,67.584z M106.256,209.747
	c10.88-17.379,29.875-28.007,50.566-28.007c32.9,0,59.665,26.765,59.665,59.665c0,31.516-24.569,57.386-55.56,59.504
	L106.256,209.747z M211.367,485.893c0,5.645-4.592,10.237-10.236,10.237s-10.237-4.592-10.237-10.237V381.735l20.472,34.137V485.893
	z M295.872,392.952c-24.276-8.018-40.785-30.537-40.785-56.593c0-32.9,26.765-59.665,59.664-59.665
	c15.324,0,29.977,5.919,41.018,16.384L295.872,392.952z M367.502,391.806c0,5.643-4.592,10.234-10.236,10.234
	s-10.237-4.591-10.237-10.234v-53.298l20.472-34.137V391.806z M420.501,299.601c0,5.643-4.592,10.234-10.237,10.234
	s-10.236-4.591-10.236-10.234v-49.465L420.501,216V299.601z M364.082,279.216c-13.637-11.777-31.106-18.392-49.332-18.392
	c-41.65,0-75.535,33.885-75.535,75.536c0,17.192,5.935,34.014,16.711,47.371c8.351,10.351,19.347,18.31,31.641,23.072L256,459.439
	l-86.149-143.651c35.46-6.194,62.507-37.18,62.507-74.384c0-41.651-33.885-75.536-75.536-75.536
	c-23.527,0-45.318,10.852-59.491,28.997l-35.855-59.787c7.092-4.068,14.299-7.908,21.614-11.51
	c12.948,24.792,38.359,40.395,66.87,40.395c41.651,0,75.536-33.883,75.536-75.532c0-1.277-0.045-2.562-0.112-3.849
	c10.16-0.794,20.373-1.207,30.616-1.207c68.437,0,135.514,17.859,194.523,51.702L364.082,279.216z M97.496,116.843
	c35.565-15.745,73.346-26.107,112.082-30.716c0.031,0.771,0.049,1.541,0.049,2.305c0,32.897-26.765,59.661-59.665,59.661
	C127.695,148.093,107.829,136.042,97.496,116.843z M458.688,121.464C397.213,86.144,327.313,67.505,256,67.505
	S114.787,86.144,53.312,121.464l-26.57-44.302C96.215,37.038,175.302,15.871,256,15.871s159.785,21.167,229.258,61.291
	L458.688,121.464z"/>
<g>
</g>
<g>
</g>
<g>
</g>
<g>
</g>
<g>
</g>
<g>
</g>
<g>
</g>
<g>
</g>
<g>
</g>
<g>
</g>
<g>
</g>
<g>
</g>
<g>
</g>
<g>
</g>
<g>
</g>
</svg>
